<svg xmlns="http://www.w3.org/2000/svg" width="32" height="32" viewBox="0 0 32 32">
    <defs>
        <style>
            .cls-1{fill:none}.cls-2{fill:#717171}
        </style>
    </defs>
    <g id="ic_bantuan" transform="translate(-460 -522)">
        <path id="Rectangle_7818" d="M0 0h32v32H0z" class="cls-1" data-name="Rectangle 7818" transform="translate(460 522)"/>
        <g id="Group_14093" data-name="Group 14093" transform="translate(464.027 526.027)">
            <path id="Path_25381" d="M22.487 24.21a1.832 1.832 0 0 1-.568-.095l-4.843-1.662a11.927 11.927 0 0 1-5.235 1.226h-.019A11.86 11.86 0 0 1 .868 7.3 11.858 11.858 0 0 1 12.016-.026a11.873 11.873 0 0 1 11.659 11.867 11.927 11.927 0 0 1-1.226 5.235l1.666 4.847a1.727 1.727 0 0 1-1.628 2.286zm-5.463-3.257a.768.768 0 0 1 .232.038l5.131 1.761a.277.277 0 0 0 .3-.071.286.286 0 0 0 .071-.3l-1.766-5.127a.719.719 0 0 1 .043-.568A10.416 10.416 0 0 0 4.456 4.461 10.326 10.326 0 0 0 1.408 12a10.418 10.418 0 0 0 15.275 9.041.727.727 0 0 1 .341-.088z" class="cls-2" data-name="Path 25381"/>
            <path id="Path_25382" d="M233.411 364.139a.72.72 0 1 0-.72-.72.732.732 0 0 0 .72.72z" class="cls-2" data-name="Path 25382" transform="translate(-221.703 -345.557)"/>
            <path id="Path_25383" d="M175.879 137.778a.719.719 0 0 1-.72-.72v-2.93a.719.719 0 0 1 .72-.719 2.137 2.137 0 1 0-2.14-2.135.72.72 0 1 1-1.439 0 3.574 3.574 0 1 1 4.293 3.5v2.286a.711.711 0 0 1-.714.718z" class="cls-2" data-name="Path 25383" transform="translate(-164.17 -121.681)"/>
        </g>
    </g>
</svg>
