<svg xmlns="http://www.w3.org/2000/svg" width="24" height="24" viewBox="0 0 24 24">
    <defs>
        <style>
            .cls-1,.cls-2,.cls-3{fill:none}.cls-2,.cls-3{stroke-linecap:round}.cls-2{stroke-linejoin:round}.cls-3{stroke:#969696;stroke-width:1.5px}.cls-4,.cls-5{stroke:none}.cls-5{fill:#969696}
        </style>
    </defs>
    <g id="ic_basket" transform="translate(-198 -861)">
        <path id="Rectangle_7773" d="M0 0h24v24H0z" class="cls-1" data-name="Rectangle 7773" transform="translate(198 861)"/>
        <g id="Group_16576" data-name="Group 16576" transform="translate(33 4)">
            <g id="Path_28559" class="cls-2" data-name="Path 28559">
                <path d="M2 0h16l2 16a4 4 0 0 1-4 4H4a4 4 0 0 1-4-4z" class="cls-4" transform="translate(167 859)"/>
                <path d="M3.324 1.5L1.501 16.083A2.503 2.503 0 0 0 4 18.5h12a2.503 2.503 0 0 0 2.499-2.417L16.676 1.5H3.324M2 0h16l2 16a4 4 0 0 1-4 4H4a4 4 0 0 1-4-4L2 0z" class="cls-5" transform="translate(167 859)"/>
            </g>
            <path id="Path_28561" d="M-15513.816-11868.1s.076 3.789 1.729 5.052a3.614 3.614 0 0 0 4.88 0c1.566-1.263 1.385-5.052 1.385-5.052" class="cls-3" data-name="Path 28561" transform="translate(15686.816 12731.096)"/>
        </g>
    </g>
</svg>
