<svg xmlns="http://www.w3.org/2000/svg" viewBox="0 0 24 24">
    <defs>
        <style>
            .cls-1{fill:#ccc}.cls-2{fill:none}
        </style>
    </defs>
    <g id="ic_cancelFill" transform="translate(-115 -522)">
        <path id="Path_15356" d="M11.978 2.072a7 7 0 1 0 0 9.906 7.016 7.016 0 0 0 0-9.906zm-2.19 7.716a.571.571 0 0 1-.775 0L7.025 7.8 4.936 9.889a.548.548 0 0 1-.775-.775L6.25 7.025 4.262 5.037a.548.548 0 0 1 .775-.775L7.025 6.25l1.921-1.921a.548.548 0 1 1 .775.775L7.8 7.025l1.988 1.988a.571.571 0 0 1 0 .775z" class="cls-1" data-name="Path 15356" transform="translate(119.975 526.975)"/>
        <path id="Rectangle_7680" d="M0 0h24v24H0z" class="cls-2" data-name="Rectangle 7680" transform="translate(115 522)"/>
    </g>
</svg>
