<svg xmlns="http://www.w3.org/2000/svg" width="24" height="24" viewBox="0 0 24 24">
    <defs>
        <style>
            .cls-1{fill:none}.cls-2,.cls-3{fill:#969696}.cls-2{stroke:#969696;stroke-width:.6px}
        </style>
    </defs>
    <g id="ic_chat" transform="translate(-275 -905)">
        <path id="Rectangle_7775" d="M0 0h24v24H0z" class="cls-1" data-name="Rectangle 7775" transform="translate(275 905)"/>
        <g id="Group_16581" data-name="Group 16581" transform="translate(276 905.505)">
            <path id="Path_28570" d="M16.857.494H9.608a5.509 5.509 0 0 0-5.242 3.848A5.516 5.516 0 0 0 0 9.729v4.229a5.647 5.647 0 0 0 5.219 5.533v2.415a.569.569 0 0 0 .333.546.493.493 0 0 0 .188.038.556.556 0 0 0 .391-.171l.567-.567a7.74 7.74 0 0 1 5.521-2.252h.538a5.521 5.521 0 0 0 5.252-3.878 5.638 5.638 0 0 0 4.356-5.4V6A5.514 5.514 0 0 0 16.857.494zm-4.1 18.265h-.538a8.482 8.482 0 0 0-6.049 2.467l-.206.207v-3.85a.373.373 0 0 0-.746 0v1.157a4.888 4.888 0 0 1-4.472-4.782V9.729A4.77 4.77 0 0 1 4.525 5.07l.175-.029h.025c.132-.022.259-.038.381-.05s.267-.021.4-.021h7.249a4.768 4.768 0 0 1 4.762 4.762v4.229a4.825 4.825 0 0 1-.04.592c0 .039-.012.078-.018.117a5.025 5.025 0 0 1-.116.551l-.057.212a4.774 4.774 0 0 1-4.529 3.326zm8.863-8.528a4.884 4.884 0 0 1-3.42 4.579c0-.029.006-.058.01-.087.013-.095.026-.189.035-.285.015-.161.024-.321.024-.48V9.729a5.514 5.514 0 0 0-5.508-5.507H5.508c-.1 0-.209 0-.316.01A4.766 4.766 0 0 1 9.608 1.24h7.249A4.767 4.767 0 0 1 21.62 6z" class="cls-2" data-name="Path 28570"/>
            <path id="Path_28571" d="M10.491 27.494a1.491 1.491 0 1 0 1.491 1.491 1.493 1.493 0 0 0-1.491-1.491zm0 2.237a.746.746 0 1 1 .746-.746.746.746 0 0 1-.746.746z" class="cls-3" data-name="Path 28571" transform="translate(-5.645 -16.936)"/>
            <path id="Path_28572" d="M22.491 27.494a1.491 1.491 0 1 0 1.491 1.491 1.493 1.493 0 0 0-1.491-1.491zm0 2.237a.746.746 0 1 1 .746-.746.746.746 0 0 1-.746.746z" class="cls-3" data-name="Path 28572" transform="translate(-13.172 -16.936)"/>
            <path id="Path_28573" d="M34.491 27.494a1.491 1.491 0 1 0 1.491 1.491 1.493 1.493 0 0 0-1.491-1.491zm0 2.237a.746.746 0 1 1 .746-.746.746.746 0 0 1-.746.746z" class="cls-3" data-name="Path 28573" transform="translate(-20.699 -16.936)"/>
        </g>
    </g>
</svg>
