<svg xmlns="http://www.w3.org/2000/svg" width="24" height="24" viewBox="0 0 24 24">
    <defs>
        <style>
            .cls-1{fill:none}.cls-2{fill:#00bcb8}
        </style>
    </defs>
    <g id="ic_chatActive" transform="translate(-338 -890)">
        <path id="Rectangle_7776" d="M0 0h24v24H0z" class="cls-1" data-name="Rectangle 7776" transform="translate(338 890)"/>
        <g id="Group_16582" data-name="Group 16582" transform="translate(339 890.506)">
            <path id="Path_28574" d="M12.761 10.494H5.509A5.515 5.515 0 0 0 0 16v4.231a5.649 5.649 0 0 0 5.22 5.535v2.416a.543.543 0 0 0 .522.584.554.554 0 0 0 .39-.171l.568-.565a7.742 7.742 0 0 1 5.523-2.249h.538a5.534 5.534 0 0 0 5.509-5.547V16a5.515 5.515 0 0 0-5.509-5.506zm-7.914 9.322a1.491 1.491 0 1 1 1.491-1.491 1.493 1.493 0 0 1-1.491 1.491zm4.474 0a1.491 1.491 0 1 1 1.491-1.491 1.493 1.493 0 0 1-1.49 1.491zm4.474 0a1.491 1.491 0 1 1 1.491-1.491 1.493 1.493 0 0 1-1.486 1.491z" class="cls-2" data-name="Path 28574" transform="translate(0 -6.271)"/>
            <path id="Path_28575" d="M24.759.494h-7.252a5.511 5.511 0 0 0-4.916 3.042 6.248 6.248 0 0 1 .815-.059h7.251a6.262 6.262 0 0 1 6.255 6.255v4.231a6.312 6.312 0 0 1-.163 1.4 5.634 5.634 0 0 0 3.518-5.133V6A5.515 5.515 0 0 0 24.759.494z" class="cls-2" data-name="Path 28575" transform="translate(-7.896)"/>
        </g>
    </g>
</svg>
