<svg xmlns="http://www.w3.org/2000/svg" width="15.711" height="15.711" viewBox="0 0 15.711 15.711">
  <g id="instagram_1_" data-name="instagram (1)" transform="translate(0)">
    <path id="Path_27565" data-name="Path 27565" d="M13.41,0H2.3A2.3,2.3,0,0,0,0,2.3V13.41a2.3,2.3,0,0,0,2.3,2.3H13.41a2.3,2.3,0,0,0,2.3-2.3V2.3A2.3,2.3,0,0,0,13.41,0ZM7.886,11.968a4.143,4.143,0,1,1,4.143-4.143A4.147,4.147,0,0,1,7.886,11.968Zm4.6-7.365A1.381,1.381,0,1,1,13.87,3.222,1.382,1.382,0,0,1,12.489,4.6Zm0,0" transform="translate(0 0)" fill="#ffaf20"/>
    <path id="Path_27566" data-name="Path 27566" d="M392.46,90a.46.46,0,1,0,.46.46A.461.461,0,0,0,392.46,90Zm0,0" transform="translate(-379.971 -87.238)" fill="#ffaf20"/>
    <path id="Path_27567" data-name="Path 27567" d="M155.222,150a3.222,3.222,0,1,0,3.222,3.222A3.226,3.226,0,0,0,155.222,150Zm0,0" transform="translate(-147.336 -145.397)" fill="#ffaf20"/>
  </g>
</svg>
