<svg xmlns="http://www.w3.org/2000/svg" width="32" height="32" viewBox="0 0 32 32">
    <defs>
        <style>
            .cls-1,.cls-4{fill:#717171;stroke:#707070}.cls-1{stroke-width:.5px}.cls-2{fill:none}.cls-3{clip-path:url(#clip-path)}.cls-4{stroke-width:.4px}
        </style>
        <clipPath id="clip-path">
            <path id="Rectangle_6926" d="M0 0h24.738v24.798H0z" class="cls-1" data-name="Rectangle 6926"/>
        </clipPath>
    </defs>
    <g id="ic_logout" transform="translate(-412 -522)">
        <path id="Rectangle_7817" d="M0 0h32v32H0z" class="cls-2" data-name="Rectangle 7817" transform="translate(412 522)"/>
        <g id="Group_14477" data-name="Group 14477" transform="translate(415 526)">
            <g id="Group_14476" data-name="Group 14476">
                <g id="Group_14474" class="cls-3" data-name="Group 14474">
                    <path id="Path_26124" d="M82.31 177.8a.411.411 0 0 0-.41.41v2.474a.41.41 0 1 0 .821 0v-2.474a.4.4 0 0 0-.41-.41zm0 0" class="cls-1" data-name="Path 26124" transform="translate(-76.957 -167.07)"/>
                </g>
                <g id="Group_14475" class="cls-3" data-name="Group 14475">
                    <path id="Path_26125" d="M5.4.467L1.5 2.024A1.908 1.908 0 0 0 0 4.058v17.309a1.9 1.9 0 0 0 1.5 2.028l3.911 1.563a1.64 1.64 0 0 0 .579.109 1.5 1.5 0 0 0 1.43-1.648V2A1.476 1.476 0 0 0 5.4.467zm1.19 22.958c0 .489-.241.821-.6.821a.757.757 0 0 1-.278-.054l-3.92-1.57c-.779-.29-.966-.537-.966-1.261V4.058c0-.724.187-.972.978-1.267L5.7 1.234a.872.872 0 0 1 .29-.054c.362 0 .6.332.6.821v21.424zm0 0" class="cls-1" data-name="Path 26125" transform="translate(0 -.335)"/>
                </g>
            </g>
            <path id="Path_26126" d="M136.11 28.421h5.818a1.239 1.239 0 0 1 1.237 1.237v6.18a.41.41 0 1 0 .821 0v-6.18a2.061 2.061 0 0 0-2.058-2.058h-5.818a.41.41 0 0 0 0 .821zm0 0" class="cls-1" data-name="Path 26126" transform="translate(-127.51 -25.934)"/>
            <path id="Path_26127" d="M144.328 239.2a.411.411 0 0 0-.41.41v6.18a1.239 1.239 0 0 1-1.237 1.237h-5.77a.41.41 0 1 0 0 .821h5.77a2.061 2.061 0 0 0 2.058-2.058v-6.18a.407.407 0 0 0-.41-.41zm0 0" class="cls-1" data-name="Path 26127" transform="translate(-128.262 -224.764)"/>
            <path id="Path_26128" d="M165.825 134.352a.327.327 0 0 0-.091-.133l-4.122-4.122a.414.414 0 1 0-.585.585l3.416 3.416H150.61a.41.41 0 1 0 0 .821h13.838l-3.416 3.416a.412.412 0 0 0 0 .585.408.408 0 0 0 .579 0l4.122-4.122a.516.516 0 0 0 .091-.133.4.4 0 0 0 0-.314zm0 0" class="cls-4" data-name="Path 26128" transform="translate(-141.135 -122.131)"/>
        </g>
    </g>
</svg>
