<svg xmlns="http://www.w3.org/2000/svg" width="64" height="64" viewBox="0 0 64 64">
    <defs>
        <style>
            .cls-1{fill:none}.cls-2{fill:#515759}.cls-3{fill:#fcdf76}.cls-4{fill:#f7b859}.cls-5{fill:#aa8452}.cls-6{fill:#fff7e6}.cls-7{fill:#00bcb8}.cls-8{fill:#daebf2}.cls-9{fill:#eeaf4b}.cls-10{fill:#cf853a}.cls-11{fill:#b6c2c7}
        </style>
    </defs>
    <g id="ic_pesananSudahTerkirim" transform="translate(-657.999 -432)">
        <path id="Rectangle_7826" d="M0 0h64v64H0z" class="cls-1" data-name="Rectangle 7826" transform="translate(658 432)"/>
        <g id="Group_16720" data-name="Group 16720" transform="translate(637 446)">
            <path id="Path_29038" d="M40.944 202.707a.708.708 0 0 1-.52-.226l-6.474-6.961a3.535 3.535 0 0 1-.95-2.42v-1.887a.709.709 0 0 1 1.419 0v1.887a2.121 2.121 0 0 0 .57 1.449l6.475 6.961a.709.709 0 0 1-.519 1.192zm0 0" class="cls-2" data-name="Path 29038" transform="translate(0 -177.951)"/>
            <path id="Path_29039" d="M374.19 197.95a.709.709 0 0 1-.522-1.189l6.393-6.964a2.122 2.122 0 0 0 .561-1.439v-2.378a.709.709 0 1 1 1.418 0v2.378a3.537 3.537 0 0 1-.934 2.4l-6.393 6.964a.707.707 0 0 1-.522.229zm0 0" class="cls-2" data-name="Path 29039" transform="translate(-308.379 -173.2)"/>
            <path id="Path_29040" d="M134.787 312.324a1.923 1.923 0 0 1 1.954 1.892v14a1.923 1.923 0 0 1-1.954 1.891H112.22a1.923 1.923 0 0 1-1.954-1.891v-14a1.924 1.924 0 0 1 1.954-1.892zm0 0" class="cls-3" data-name="Path 29040" transform="translate(-70.173 -288.103)"/>
            <path id="Path_29041" d="M209.329 305.666h-5.958a1.418 1.418 0 0 1-1.419-1.419v-6.43a.946.946 0 0 1 .946-.946h6.9a.946.946 0 0 1 .946.946v6.43a1.419 1.419 0 0 1-1.419 1.419zm0 0" class="cls-4" data-name="Path 29041" transform="translate(-153.02 -274.341)"/>
            <path id="Path_29042" d="M138.169 468.786h-3.5a.709.709 0 1 1 0-1.419h3.5a.709.709 0 0 1 0 1.419zm0 0" class="cls-5" data-name="Path 29042" transform="translate(-91.468 -428.913)"/>
            <path id="Path_29043" d="M136.467 437.883h-1.8a.709.709 0 1 1 0-1.418h1.8a.709.709 0 1 1 0 1.418zm0 0" class="cls-5" data-name="Path 29043" transform="translate(-91.479 -400.848)"/>
            <path id="Path_29044" d="M317.363 447.025h-2.175a.946.946 0 0 1-.946-.946v-.946a.946.946 0 0 1 .946-.946h2.175a.945.945 0 0 1 .946.946v.946a.946.946 0 0 1-.946.946zm0 0" class="cls-6" data-name="Path 29044" transform="translate(-254.813 -407.862)"/>
            <path id="Path_29045" d="M52.914-6v.009c-6.2 3.106-10.45 11.5-10.45 18.9V15.7c-.013-2.6-2.125-4.232-4.728-4.232s-4.728 1.645-4.728 4.256v-2.811A18.913 18.913 0 0 1 51.921-6zm0 0" class="cls-7" data-name="Path 29045" transform="translate(-.007)"/>
            <path id="Path_29046" d="M269.765 12.913v2.813c0-2.611-2.117-4.256-4.728-4.256s-4.715 1.634-4.728 4.232v-2.79c0-7.4-4.254-15.8-10.45-18.9V-6h.993a18.913 18.913 0 0 1 18.913 18.913zm0 0" class="cls-8" data-name="Path 29046" transform="translate(-196.105)"/>
            <path id="Path_29047" d="M146.473-5.906v21.695c0-2.885-2.34-4.279-5.225-4.279s-5.225 1.394-5.225 4.279V13c0-7.4 4.254-15.8 10.45-18.9zm0 0" class="cls-8" data-name="Path 29047" transform="translate(-93.293 -.085)"/>
            <path id="Path_29048" d="M260.309 13v2.79c0-2.885-2.34-4.279-5.225-4.279a6.156 6.156 0 0 0-3.695 1.057 3.837 3.837 0 0 0-1.53 3.222V-5.906c6.2 3.106 10.45 11.5 10.45 18.9zm0 0" class="cls-7" data-name="Path 29048" transform="translate(-196.378 -.085)"/>
            <path id="Path_29049" d="M342.666 314.216v14a1.891 1.891 0 0 1-1.891 1.891h-2.837a1.891 1.891 0 0 0 1.891-1.891v-14a1.891 1.891 0 0 0-1.891-1.892h2.837a1.891 1.891 0 0 1 1.891 1.892zm0 0" class="cls-9" data-name="Path 29049" transform="translate(-276.27 -288.103)"/>
            <path id="Path_29050" d="M255.657 297.817v6.43a1.419 1.419 0 0 1-1.419 1.419H251.4a1.419 1.419 0 0 0 1.419-1.419v-6.43a.946.946 0 0 0-.946-.946h2.837a.946.946 0 0 1 .946.946zm0 0" class="cls-10" data-name="Path 29050" transform="translate(-197.876 -274.341)"/>
            <path id="Path_29051" d="M269.765 12.913v2.813a4.076 4.076 0 0 0-2.871-3.952 18.917 18.917 0 0 0-16.84-17.665 8.882 8.882 0 0 0-.195-.1V-6h.993a18.913 18.913 0 0 1 18.913 18.913zm0 0" class="cls-11" data-name="Path 29051" transform="translate(-196.105)"/>
        </g>
    </g>
</svg>
