<svg xmlns="http://www.w3.org/2000/svg" width="24" height="24" viewBox="0 0 24 24">
    <defs>
        <style>
            .cls-1{fill:none}.cls-2{fill:#969696;stroke:#969696;stroke-width:.2px}
        </style>
    </defs>
    <g id="ic_produk" transform="translate(-233 -879)">
        <path id="Bg" d="M0 0h24v24H0z" class="cls-1" transform="translate(233 879)"/>
        <g id="Group_16579" data-name="Group 16579" transform="translate(170 541)">
            <g id="Group_16578" data-name="Group 16578" transform="translate(65 339)">
                <path id="Path_28565" d="M52.218 6.439a.641.641 0 0 0-.085-.368l-.016-.028a1.041 1.041 0 0 0-.078-.134L48.978.618A1.241 1.241 0 0 0 47.907 0H37.375A1.241 1.241 0 0 0 36.3.619l-3.11 5.4a.644.644 0 0 0-.062.151 1.089 1.089 0 0 0-.068.379v13.933A1.518 1.518 0 0 0 34.578 22H50.7a1.518 1.518 0 0 0 1.516-1.516V6.495a.265.265 0 0 0 .002-.056zm-1.933-.987h-6.978V1.289h4.57zM37.4 1.289h4.613v4.163h-7.007zm13.53 19.193a.227.227 0 0 1-.227.227H34.578a.227.227 0 0 1-.227-.227V6.741H50.93z" class="cls-2" data-name="Path 28565" transform="translate(-33.062)"/>
                <path id="Path_28566" d="M186.264 270.066a.644.644 0 0 0 .912 0l3.335-3.335a.645.645 0 0 0-.912-.912l-2.879 2.881-1.107-1.107a.645.645 0 1 0-.912.912z" class="cls-2" data-name="Path 28566" transform="translate(-178.005 -254.218)"/>
            </g>
        </g>
    </g>
</svg>
