<svg xmlns="http://www.w3.org/2000/svg" width="24" height="24.001" viewBox="0 0 24 24.001">
    <defs>
        <style>
            .cls-1{fill:none}.cls-2{fill:#fe4544}
        </style>
    </defs>
    <g id="ic_setting" transform="translate(-276 -708)">
        <g id="Group_16575" data-name="Group 16575" transform="translate(276 708)">
            <path id="Rectangle_7772" d="M0 0h24v24H0z" class="cls-1" data-name="Rectangle 7772"/>
            <path id="Path_28558" d="M23.928 10.668a.781.781 0 0 0-.771-.591 2.65 2.65 0 0 1-1.814-4.612.666.666 0 0 0 .073-.9 11.875 11.875 0 0 0-1.9-1.92.668.668 0 0 0-.912.074 2.766 2.766 0 0 1-2.993.672 2.666 2.666 0 0 1-1.623-2.61A.666.666 0 0 0 13.4.08a11.981 11.981 0 0 0-2.7-.007.668.668 0 0 0-.594.687 2.67 2.67 0 0 1-1.644 2.56 2.773 2.773 0 0 1-2.971-.676.669.669 0 0 0-.906-.076 11.92 11.92 0 0 0-1.94 1.919.668.668 0 0 0 .072.912 2.659 2.659 0 0 1 .671 2.994 2.774 2.774 0 0 1-2.612 1.622.652.652 0 0 0-.693.589 12.021 12.021 0 0 0-.005 2.729.794.794 0 0 0 .787.59 2.632 2.632 0 0 1 2.469 1.644 2.668 2.668 0 0 1-.671 2.967.667.667 0 0 0-.073.9 11.918 11.918 0 0 0 1.9 1.921.667.667 0 0 0 .913-.072 2.762 2.762 0 0 1 2.992-.673 2.661 2.661 0 0 1 1.624 2.6.667.667 0 0 0 .589.7 11.943 11.943 0 0 0 2.7.007.668.668 0 0 0 .594-.687 2.667 2.667 0 0 1 1.642-2.559 2.769 2.769 0 0 1 2.972.676.671.671 0 0 0 .906.076 11.947 11.947 0 0 0 1.941-1.919.666.666 0 0 0-.072-.912 2.659 2.659 0 0 1-.672-2.994 2.687 2.687 0 0 1 2.455-1.627h.148a.668.668 0 0 0 .7-.588 12.011 12.011 0 0 0 .006-2.715zm-11.906 5.361a4 4 0 1 1 4-4 4.007 4.007 0 0 1-4 4z" class="cls-2" data-name="Path 28558" transform="translate(-.003)"/>
        </g>
    </g>
</svg>
