<svg xmlns="http://www.w3.org/2000/svg" viewBox="0 0 24 24">
    <defs>
        <style>
            .cls-1{fill:#646464;stroke:#646464;stroke-width:.2px}.cls-2{fill:none}.cls-3{clip-path:url(#clip-path)}
        </style>
        <clipPath id="clip-path">
            <path id="Rectangle_4986" d="M0 0h20v12H0z" class="cls-1" data-name="Rectangle 4986"/>
        </clipPath>
    </defs>
    <g id="ic_Seen" transform="translate(-162 -378)">
        <path id="Rectangle_7592" d="M0 0h24v24H0z" class="cls-2" data-name="Rectangle 7592" transform="translate(162 378)"/>
        <g id="Group_15708" data-name="Group 15708" transform="translate(164 384)">
            <g id="Group_11156" data-name="Group 11156">
                <g id="Group_11155" class="cls-3" data-name="Group 11155">
                    <path id="Path_18945" d="M17 3.644a10.185 10.185 0 0 0-14.375 0L0 6.31l2.708 2.709a10.058 10.058 0 0 0 7.167 2.958 10.163 10.163 0 0 0 7.167-2.958l2.667-2.667zm-.375 4.916a9.481 9.481 0 0 1-13.417 0L.958 6.31l2.167-2.166a9.481 9.481 0 0 1 13.417 0l2.25 2.25zm0 0" class="cls-1" data-name="Path 18945" transform="translate(0 -.394)"/>
                </g>
            </g>
            <path id="Path_18947" d="M17.916 3.9A4.457 4.457 0 0 0 13.3 8.125a4.457 4.457 0 0 0 4.616 4.225 4.457 4.457 0 0 0 4.616-4.225A4.43 4.43 0 0 0 17.916 3.9zm0 7.759a3.73 3.73 0 0 1-3.906-3.575 3.73 3.73 0 0 1 3.906-3.575 3.73 3.73 0 0 1 3.906 3.575 3.757 3.757 0 0 1-3.906 3.575zm0 0" class="cls-1" data-name="Path 18947" transform="translate(-8.034 -2.169)"/>
        </g>
    </g>
</svg>
