<svg xmlns="http://www.w3.org/2000/svg" width="15.711" height="12.859" viewBox="0 0 15.711 12.859">
  <path id="twitter_1_" data-name="twitter (1)" d="M5.861,12.859a13.481,13.481,0,0,1-2.082-.165A9.772,9.772,0,0,1,.931,11.657L0,11.149l1.008-.331c1.1-.362,1.772-.587,2.6-.939A3.461,3.461,0,0,1,1.83,7.817L1.6,7.105l.192.029a3.5,3.5,0,0,1-.438-.54A3.315,3.315,0,0,1,.788,4.624L.832,4l.372.144A3.477,3.477,0,0,1,.867,3.2,3.594,3.594,0,0,1,1.25.783L1.574.188l.433.52A7.975,7.975,0,0,0,7.174,3.617a3.09,3.09,0,0,1,.188-1.642A3.074,3.074,0,0,1,8.611.543,3.753,3.753,0,0,1,10.789.008,3.479,3.479,0,0,1,12.928.89a7.18,7.18,0,0,0,.783-.261c.172-.065.366-.138.61-.222l.9-.309-.585,1.672.12-.008.958-.043-.566.774c-.032.044-.041.057-.052.074-.046.069-.1.154-.88,1.193a1.465,1.465,0,0,0-.274.954,9.021,9.021,0,0,1-.492,3.628,6.42,6.42,0,0,1-1.723,2.553,7.612,7.612,0,0,1-3.608,1.744A11.108,11.108,0,0,1,5.861,12.859Zm0,0" transform="translate(0 -0.001)" fill="#ffaf20"/>
</svg>
