<svg xmlns="http://www.w3.org/2000/svg" width="32" height="32" viewBox="0 0 32 32">
    <defs>
        <style>
            .cls-1{fill:none}.cls-2{fill:#717171;stroke:#707070;stroke-width:.3px}
        </style>
    </defs>
    <g id="ic_jam" transform="translate(-198 -787)">
        <path id="Rectangle_7807" d="M0 0h32v32H0z" class="cls-1" data-name="Rectangle 7807" transform="translate(198 787)"/>
        <g id="JAM" transform="translate(201 790)">
            <g id="Group_16662" data-name="Group 16662">
                <g id="Group_16661" data-name="Group 16661">
                    <path id="Path_28975" d="M13 0a13 13 0 1 0 13 13A13 13 0 0 0 13 0zm.558 24.857V22.57a.558.558 0 0 0-1.115 0v2.287a11.879 11.879 0 0 1-11.3-11.3H3.43a.558.558 0 1 0 0-1.115H1.143a11.879 11.879 0 0 1 11.3-11.3V3.43a.558.558 0 1 0 1.115 0V1.143a11.879 11.879 0 0 1 11.3 11.3H22.57a.558.558 0 0 0 0 1.115h2.292a11.879 11.879 0 0 1-11.304 11.299z" class="cls-2" data-name="Path 28975"/>
                </g>
            </g>
            <g id="Group_16664" data-name="Group 16664" transform="translate(11.418 6.551)">
                <g id="Group_16663" data-name="Group 16663">
                    <path id="Path_28976" d="M184.959 106.147L179.6 100.7v-5.66a.561.561 0 1 0-1.122 0v5.89a.561.561 0 0 0 .163.393l5.514 5.609a.561.561 0 1 0 .8-.785z" class="cls-2" data-name="Path 28976" transform="translate(-178.48 -94.48)"/>
                </g>
            </g>
        </g>
    </g>
</svg>
