<svg xmlns="http://www.w3.org/2000/svg" width="32" height="32" viewBox="0 0 32 32">
    <defs>
        <style>
            .cls-1{fill:none}.cls-2{fill:#fe4544;stroke:#fe4544;stroke-width:.5px}
        </style>
    </defs>
    <g id="ic_archive" transform="translate(-324 -775)">
        <path id="Rectangle_7850" d="M0 0h32v32H0z" class="cls-1" data-name="Rectangle 7850" transform="translate(324 775)"/>
        <g id="Group_16830" data-name="Group 16830" transform="translate(2.001 2)">
            <path id="Path_29082" d="M19.921 0H3.937A.942.942 0 0 0 3 .944v18.112a.942.942 0 0 0 .937.944h15.984a.942.942 0 0 0 .937-.944V.944A.942.942 0 0 0 19.921 0zM3.937.667h15.984a.276.276 0 0 1 .279.277v8.723H3.661V.944a.276.276 0 0 1 .276-.277zm15.984 18.666H3.937a.276.276 0 0 1-.275-.277v-8.723H20.2v8.723a.276.276 0 0 1-.279.277z" class="cls-2" data-name="Path 29082" transform="translate(326 779)"/>
            <path id="Path_29083" d="M22.154 13.976h3.62a1.156 1.156 0 0 0 1.154-1.154v-.492a.329.329 0 0 0-.659 0v.492a.5.5 0 0 1-.5.5h-3.62a.5.5 0 0 1-.5-.5v-.492a.329.329 0 0 0-.659 0v.492a1.156 1.156 0 0 0 1.164 1.154z" class="cls-2" data-name="Path 29083" transform="translate(313.965 771.005)"/>
            <path id="Path_29084" d="M26.6 41a.329.329 0 0 0-.329.329v.492a.5.5 0 0 1-.5.5h-3.62a.5.5 0 0 1-.5-.5v-.492a.329.329 0 0 0-.659 0v.492a1.156 1.156 0 0 0 1.154 1.154h3.62a1.156 1.156 0 0 0 1.154-1.154v-.492A.329.329 0 0 0 26.6 41z" class="cls-2" data-name="Path 29084" transform="translate(313.965 751.685)"/>
        </g>
    </g>
</svg>
