<svg id="history" xmlns="http://www.w3.org/2000/svg" width="22" height="22" viewBox="0 0 22 22">
  <g id="Group_14454" data-name="Group 14454">
    <g id="Group_14453" data-name="Group 14453">
      <path id="Path_18964" data-name="Path 18964" d="M11,0a.645.645,0,0,0,0,1.289A9.828,9.828,0,1,1,4.255,4.08V5.2a.644.644,0,1,0,1.288,0V2.621A.644.644,0,0,0,4.9,1.977H2.3a.642.642,0,1,0,0,1.285h.946A10.956,10.956,0,1,0,11,0Z" fill="#969696"/>
    </g>
  </g>
  <g id="Group_14456" data-name="Group 14456" transform="translate(3.91 3.91)">
    <g id="Group_14455" data-name="Group 14455">
      <path id="Path_18965" data-name="Path 18965" d="M98.09,91a7.09,7.09,0,1,0,7.09,7.09A7.1,7.1,0,0,0,98.09,91Zm4.53,10.708-.428-.428a.645.645,0,0,0-.911.911l.428.428a5.774,5.774,0,0,1-2.974,1.235v-.609a.645.645,0,1,0-1.289,0v.609a5.774,5.774,0,0,1-2.974-1.235l.428-.428a.645.645,0,1,0-.911-.911l-.428.428a5.773,5.773,0,0,1-1.235-2.974h.609a.645.645,0,0,0,0-1.289h-.609a5.774,5.774,0,0,1,1.235-2.974l.428.428a.645.645,0,0,0,.911-.911l-.428-.428a5.774,5.774,0,0,1,2.974-1.235v.609a.645.645,0,0,0,1.289,0v-.609a5.774,5.774,0,0,1,2.974,1.235l-.428.428a.645.645,0,0,0,.911.911l.428-.428a5.773,5.773,0,0,1,1.235,2.974h-.609a.642.642,0,1,0,0,1.285h.609A5.788,5.788,0,0,1,102.62,101.708Z" transform="translate(-91 -91)" fill="#969696"/>
    </g>
  </g>
  <g id="Group_14458" data-name="Group 14458" transform="translate(10.355 7.777)">
    <g id="Group_14457" data-name="Group 14457">
      <path id="Path_18966" data-name="Path 18966" d="M243.389,185.056l-1.1-1.1v-2.311a.645.645,0,0,0-1.289,0v2.578a.645.645,0,0,0,.189.456l1.289,1.289a.645.645,0,1,0,.911-.911Z" transform="translate(-241 -181)" fill="#969696"/>
    </g>
  </g>
</svg>
