<svg xmlns="http://www.w3.org/2000/svg" width="26" height="20.54" viewBox="0 0 26 20.54">
  <path id="open-box" d="M25.9,62.3l-2.685-4.686a.76.76,0,0,0-.4-.336h0l-9.47-3.471a.762.762,0,0,0-.52,0L3.189,57.277h0a.76.76,0,0,0-.4.338L.1,62.3A.762.762,0,0,0,.487,63.39l2.2.854v5.825a.762.762,0,0,0,.5.717l9.563,3.444a.757.757,0,0,0,.321.071h.011a.763.763,0,0,0,.258-.045l9.636-3.471a.762.762,0,0,0,.5-.717V64.179l2.033-.789A.762.762,0,0,0,25.9,62.3ZM13.081,55.333l7.263,2.662L13.071,60.67,5.689,58ZM3.79,58.928l8.166,2.959L9.908,65.413,1.863,62.29Zm.419,5.907,5.755,2.234a.761.761,0,0,0,.934-.327l1.413-2.432v8.142l-8.1-2.918Zm17.749,4.7-8.124,2.926V64.44l1.26,2.286a.762.762,0,0,0,.943.342l5.921-2.3Zm-5.851-4.126L14.168,61.89l8.045-2.96,1.925,3.36Z" transform="translate(0 -53.761)" fill="#969696"/>
</svg>
