<svg xmlns="http://www.w3.org/2000/svg" xmlns:xlink="http://www.w3.org/1999/xlink" viewBox="0 0 31.376 30.566">
  <defs>
    <style>
      .cls-1 {
        fill: #fe4544;
      }

      .cls-2 {
        clip-path: url(#clip-path);
      }
    </style>
    <clipPath id="clip-path">
      <rect id="Rectangle_5634" data-name="Rectangle 5634" class="cls-1" width="23.748" height="21.204"/>
    </clipPath>
  </defs>
  <g id="Group_14146" data-name="Group 14146" transform="matrix(0.848, -0.53, 0.53, 0.848, 0, 12.585)">
    <g id="Group_14145" data-name="Group 14145">
      <g id="Group_14144" data-name="Group 14144" class="cls-2">
        <path id="Path_25404" data-name="Path 25404" class="cls-1" d="M0,20.356,23.748,10.178,0,0V7.916l16.963,2.262L0,12.44Zm0,0"/>
      </g>
    </g>
  </g>
</svg>
