<svg id="instagram" xmlns="http://www.w3.org/2000/svg" width="25.238" height="25.238" viewBox="0 0 25.238 25.238">
  <path id="Path_27549" data-name="Path 27549" d="M18.406,0H6.832A6.839,6.839,0,0,0,0,6.832V18.406a6.839,6.839,0,0,0,6.832,6.831H18.406a6.839,6.839,0,0,0,6.831-6.831V6.832A6.839,6.839,0,0,0,18.406,0Zm5.352,18.406a5.358,5.358,0,0,1-5.352,5.352H6.832A5.358,5.358,0,0,1,1.48,18.406V6.832A5.358,5.358,0,0,1,6.832,1.48H18.406a5.358,5.358,0,0,1,5.352,5.352Zm0,0" fill="#717171"/>
  <path id="Path_27550" data-name="Path 27550" d="M122.9,116a6.9,6.9,0,1,0,6.9,6.9A6.909,6.909,0,0,0,122.9,116Zm0,12.322a5.421,5.421,0,1,1,5.421-5.421A5.427,5.427,0,0,1,122.9,128.326Zm0,0" transform="translate(-110.286 -110.286)" fill="#717171"/>
  <path id="Path_27551" data-name="Path 27551" d="M360.016,66.285a2.039,2.039,0,1,0,2.039,2.039A2.041,2.041,0,0,0,360.016,66.285Zm0,2.6a.56.56,0,1,1,.56-.56A.56.56,0,0,1,360.016,68.884Zm0,0" transform="translate(-340.331 -63.018)" fill="#717171"/>
</svg>
