<svg xmlns="http://www.w3.org/2000/svg" width="101" height="23.976" viewBox="0 0 101 23.976">
  <g id="logo" transform="translate(-12 -10.414)">
    <g id="Pocimas-01" transform="translate(12 10.414)">
      <path id="Path_18957" data-name="Path 18957" d="M14.039,0h-.076a8.312,8.312,0,0,0-8.3,8.3V13.11H3.723a5.433,5.433,0,1,0,5.434,5.433V8.3A4.813,4.813,0,0,1,13.964,3.5h.076a4.807,4.807,0,1,1,0,9.614H12.208v3.5h1.831A8.3,8.3,0,0,0,14.039,0ZM5.661,18.543a1.938,1.938,0,1,1-1.939-1.937H5.661v1.938Z" transform="translate(1.71 0)" fill="#ffaf20"/>
      <circle id="Ellipse_1176" data-name="Ellipse 1176" cx="1.788" cy="1.788" r="1.788" transform="translate(13.923 6.519)" fill="#ffaf20"/>
    </g>
    <text id="Pocimas" transform="translate(45 28)" fill="#ffaf20" font-size="15" font-family="Roboto-Bold, Roboto" font-weight="700" letter-spacing="0.1em"><tspan x="0" y="0">Pocimas</tspan></text>
  </g>
</svg>
